X0 = 0
X1 = 0
X2 = 0
X3 = 0
X4 = 0
X5 = 0
X6 = 0
X7 = 0
X8 = 0
X9 = 93
X10 = -35
X11 = 58
X12 = 0
X13 = 0
X14 = 0
X15 = 0
X16 = 0
X17 = 0
X18 = 0
X19 = 0
X20 = 0
X21 = 19
X22 = 54
X23 = 80
X24 = 13
X25 = 0
X26 = 0
X27 = 0
X28 = 0
X29 = 0
X30 = 0
